{
 "execution": [
  {
   "concurrency": 10,
   "ramp-up": "1m",
   "hold-for": "1m30s",
   "scenario": "basic-performance-test"
  }
 ],
 "scenarios": {
  "basic-performance-test": {
   "think-time": 0.75,
   "requests": [
    "http://www.google.com/"
   ]
  }
 }
}
