{
 "modules": {
  "ab": {
   "class": "bzt.modules.ab.ApacheBenchmarkExecutor"
  },
  "gatling": {
   "class": "bzt.modules.gatling.GatlingExecutor",
   "properties": {
    "gatling.data.file.bufferSize": 256
   }
  },
  "grinder": {
   "class": "bzt.modules.grinder.GrinderExecutor",
   "properties": {
    "grinder.useConsole": false
   }
  },
  "jmeter": {
   "class": "bzt.modules.jmeter.JMeterExecutor",
   "protocol-handlers": {
    "http": "bzt.jmx.http.HTTPProtocolHandler"
   },
   "plugins": [
    "jpgc-casutg",
    "jpgc-dummy",
    "jpgc-ffw",
    "jpgc-fifo",
    "jpgc-functions",
    "jpgc-json",
    "jpgc-perfmon",
    "jpgc-prmctl",
    "jpgc-tst"
   ],
   "properties": {
    "jmeter.save.saveservice.autoflush": "true",
    "jmeter.save.saveservice.connect_time": "true",
    "jmeterengine.force.system.exit": "true",
    "summariser.name": ""
   },
   "version": "5.0",
   "system-properties": {
    "sun.net.inetaddr.ttl": 0
   },
   "path": "C:\\Users\\daria\\.bzt\\jmeter-taurus\\5.0\\bin\\jmeter.bat"
  },
  "locust": {
   "class": "bzt.modules.locustio.LocustIOExecutor"
  },
  "molotov": {
   "class": "bzt.modules.molotov.MolotovExecutor"
  },
  "pbench": {
   "class": "bzt.modules.pbench.PBenchExecutor"
  },
  "siege": {
   "class": "bzt.modules.siege.SiegeExecutor"
  },
  "tsung": {
   "class": "bzt.modules.tsung.TsungExecutor"
  },
  "selenium": {
   "class": "bzt.modules.selenium.SeleniumExecutor"
  },
  "nose": {
   "class": "bzt.modules.python.ApiritifNoseExecutor"
  },
  "junit": {
   "class": "bzt.modules.java.JUnitTester"
  },
  "testng": {
   "class": "bzt.modules.java.TestNGTester"
  },
  "rspec": {
   "class": "bzt.modules.ruby.RSpecTester"
  },
  "mocha": {
   "class": "bzt.modules.javascript.MochaTester"
  },
  "nunit": {
   "class": "bzt.modules.csharp.NUnitExecutor"
  },
  "pytest": {
   "class": "bzt.modules.python.PyTestExecutor"
  },
  "wdio": {
   "class": "bzt.modules.javascript.WebdriverIOExecutor"
  },
  "robot": {
   "class": "bzt.modules.python.RobotExecutor"
  },
  "newman": {
   "class": "bzt.modules.javascript.NewmanExecutor"
  },
  "apiritif": {
   "class": "bzt.modules.python.ApiritifNoseExecutor"
  },
  "local": {
   "class": "bzt.modules.provisioning.Local"
  },
  "monitoring": {
   "class": "bzt.modules.monitoring.Monitoring"
  },
  "passfail": {
   "class": "bzt.modules.passfail.PassFailStatus"
  },
  "shellexec": {
   "class": "bzt.modules.shellexec.ShellExecutor"
  },
  "junit-xml": {
   "class": "bzt.modules.reporting.JUnitXMLReporter"
  },
  "install-checker": {
   "class": "bzt.modules.services.InstallChecker"
  },
  "console": {
   "class": "bzt.modules.console.ConsoleStatusReporter"
  },
  "consolidator": {
   "class": "bzt.modules.aggregator.ConsolidatingAggregator",
   "percentiles": [
    0.0,
    50.0,
    90.0,
    95.0,
    99.0,
    99.9,
    100.0
   ]
  },
  "final-stats": {
   "class": "bzt.modules.reporting.FinalStatus"
  },
  "functional-consolidator": {
   "class": "bzt.modules.functional.FunctionalAggregator"
  },
  "android-emulator": {
   "class": "bzt.modules.services.AndroidEmulatorLoader"
  },
  "appium": {
   "class": "bzt.modules.services.AppiumLoader"
  },
  "virtual-display": {
   "class": "bzt.modules.services.VirtualDisplay"
  },
  "external-results-loader": {
   "class": "bzt.modules.external.ExternalResultsLoader"
  },
  "blazemeter": {
   "class": "bzt.modules.blazemeter.BlazeMeterUploader"
  },
  "cloud": {
   "class": "bzt.modules.blazemeter.CloudProvisioning",
   "default-location": "us-central1-a"
  },
  "proxy2jmx": {
   "class": "bzt.modules.proxy2jmx.Proxy2JMX"
  },
  "unpacker": {
   "class": "bzt.modules.services.Unpacker"
  },
  "screenshoter": {
   "class": "bzt.modules.blazemeter.ServiceStubScreenshoter"
  },
  "capturehar": {
   "class": "bzt.modules.blazemeter.ServiceStubCaptureHAR"
  },
  "final_stats": {
   "class": "bzt.modules.reporting.FinalStatus"
  }
 },
 "cli-aliases": {
  "cloud": {
   "provisioning": "cloud"
  },
  "detach": {
   "modules": {
    "cloud": {
     "detach": true
    }
   }
  },
  "func": {
   "modules": {
    "console": {
     "disable": true
    }
   },
   "settings": {
    "aggregator": "functional-consolidator"
   }
  },
  "gui": {
   "modules": {
    "jmeter": {
     "gui": true
    }
   }
  },
  "install-tools": {
   "services": [
    "install-checker"
   ]
  },
  "local": {
   "provisioning": "local"
  },
  "locations": {
   "modules": {
    "cloud": {
     "dump-locations": true
    }
   },
   "provisioning": "cloud"
  },
  "report": {
   "reporting": [
    "blazemeter"
   ]
  },
  "public": {
   "modules": {
    "blazemeter": {
     "public-report": true
    }
   }
  },
  "sequential": {
   "modules": {
    "local": {
     "sequential": true
    }
   }
  },
  "lint": {
   "cli": {
    "linter": {
     "lint-and-exit": true
    }
   }
  },
  "nolint": {
   "cli": {
    "linter": {
     "disable": true
    }
   }
  }
 },
 "cli": {
  "linter": {
   "disable": false,
   "warn-on-unfamiliar-fields": false,
   "ignored-warnings": [],
   "lint-and-exit": false
  }
 },
 "settings": {
  "aggregator": "consolidator",
  "default-executor": "jmeter",
  "env": {
   "OBJC_DISABLE_INITIALIZE_FORK_SAFETY": "YES",
   "TAURUS_ARTIFACTS_DIR": "C:\\Users\\daria\\Desktop\\e2e-automation-pipeline\\2018-12-28_14-48-05.431546"
  }
 },
 "provisioning": "local",
 "reporting": [
  {
   "module": "final-stats"
  },
  {
   "module": "console"
  }
 ],
 "services": [
  {
   "module": "monitoring",
   "local": [
    {
     "metrics": [
      "cpu",
      "mem",
      "bytes-sent",
      "bytes-recv",
      "disk-read",
      "disk-write",
      "disk-space",
      "engine-loop",
      "conn-all"
     ]
    }
   ]
  }
 ],
 "execution": [
  {
   "concurrency": {
    "local": 10
   },
   "ramp-up": "1m",
   "hold-for": "1m30s",
   "scenario": "basic-performance-test",
   "executor": "jmeter",
   "throughput": {}
  }
 ],
 "scenarios": {
  "basic-performance-test": {
   "think-time": 0.75,
   "requests": [
    {
     "url": "http://www.google.com/"
    }
   ]
  }
 },
 "included-configs": [],
 "version": "1.13.2"
}
