Created the tree successfully using C:\Users\daria\Desktop\e2e-automation-pipeline\2018-12-28_14-48-05.431546\modified_requests.jmx
Starting the test @ Fri Dec 28 14:48:22 ART 2018 (1546019302813)
Waiting for possible Shutdown/StopTestNow/Heapdump message on port 4445
Tidying up ...    @ Fri Dec 28 14:51:01 ART 2018 (1546019461814)
... end of run
