[2018-12-28 14:31:16,580 INFO root] Taurus CLI Tool v1.13.2
[2018-12-28 14:31:16,581 DEBUG root] Command-line options: {'log': 'C:\\Users\\daria\\AppData\\Local\\Temp\\bzt_g3hpc0fq.log', 'option': None, 'quiet': None, 'verbose': None, 'no_system_configs': None, 'aliases': []}
[2018-12-28 14:31:16,581 DEBUG root] Python: CPython 3.6.5
[2018-12-28 14:31:16,581 DEBUG root] Rev: 8c96479fb6a315f7ffb7c0afcaa7e841152c90a3; OS: uname_result(system='Windows', node='DESKTOP-HLH4L3E', release='10', version='10.0.17134', machine='AMD64', processor='Intel64 Family 6 Model 78 Stepping 3, GenuineIntel')
[2018-12-28 14:31:16,582 INFO root] Starting with configs: ['src/test/java/performance/BlazeDemoPerformanceTest.yml']
[2018-12-28 14:31:16,583 DEBUG root] Using personal config: C:\Users\daria\.bzt-rc
[2018-12-28 14:31:16,583 INFO Engine] Configuring...
[2018-12-28 14:31:16,632 DEBUG Engine] Base configs list: ['C:\\Users\\daria\\AppData\\Local\\Taurus\\pkgs\\bzt\\resources/10-base-config.yml']
[2018-12-28 14:31:16,632 DEBUG Engine.Configuration] Configs: ['C:\\Users\\daria\\AppData\\Local\\Taurus\\pkgs\\bzt\\resources/10-base-config.yml']
[2018-12-28 14:31:16,633 DEBUG Engine.Configuration] Reading C:\Users\daria\AppData\Local\Taurus\pkgs\bzt\resources/10-base-config.yml as YAML
[2018-12-28 14:31:16,660 DEBUG Engine] User configs list: ['C:\\Users\\daria\\.bzt-rc', 'src/test/java/performance/BlazeDemoPerformanceTest.yml']
[2018-12-28 14:31:16,660 DEBUG Engine.Configuration] Configs: ['C:\\Users\\daria\\.bzt-rc', 'src/test/java/performance/BlazeDemoPerformanceTest.yml']
[2018-12-28 14:31:16,661 DEBUG Engine.Configuration] Reading C:\Users\daria\.bzt-rc as YAML
[2018-12-28 14:31:16,666 DEBUG Engine.Configuration] Reading src/test/java/performance/BlazeDemoPerformanceTest.yml as YAML
[2018-12-28 14:31:16,667 DEBUG Engine.Configuration] Configs: ['C:\\Users\\daria\\.bzt-rc', 'src/test/java/performance/BlazeDemoPerformanceTest.yml']
[2018-12-28 14:31:16,668 DEBUG Engine.Configuration] Reading C:\Users\daria\.bzt-rc as YAML
[2018-12-28 14:31:16,672 DEBUG Engine.Configuration] Reading src/test/java/performance/BlazeDemoPerformanceTest.yml as YAML
[2018-12-28 14:31:16,674 DEBUG Engine] Requesting updates info: http://gettaurus.org/updates/?version=1.13.2&installID=windows-34de1a9b8187
[2018-12-28 14:31:16,675 INFO Engine] Artifacts dir: C:\Users\daria\Desktop\e2e-automation-pipeline\2018-12-28_14-31-16.675310
[2018-12-28 14:31:16,675 DEBUG HTTPClient] Making HTTP request GET http://gettaurus.org/updates/?version=1.13.2&installID=windows-34de1a9b8187
[2018-12-28 14:31:16,677 DEBUG Engine] New artifact filename: C:\Users\daria\Desktop\e2e-automation-pipeline\2018-12-28_14-31-16.675310\effective
[2018-12-28 14:31:16,680 DEBUG Engine.Configuration] Dumping YAML config into C:\Users\daria\Desktop\e2e-automation-pipeline\2018-12-28_14-31-16.675310\effective.yml
[2018-12-28 14:31:16,686 DEBUG urllib3.connectionpool] Starting new HTTP connection (1): gettaurus.org:80
[2018-12-28 14:31:16,714 DEBUG Engine.Configuration] Dumping JSON config into C:\Users\daria\Desktop\e2e-automation-pipeline\2018-12-28_14-31-16.675310\effective.json
[2018-12-28 14:31:16,715 DEBUG Engine] New artifact filename: C:\Users\daria\Desktop\e2e-automation-pipeline\2018-12-28_14-31-16.675310\merged.yml
[2018-12-28 14:31:16,716 DEBUG Engine.Configuration] Dumping YAML config into C:\Users\daria\Desktop\e2e-automation-pipeline\2018-12-28_14-31-16.675310\merged.yml
[2018-12-28 14:31:16,718 DEBUG Engine] New artifact filename: C:\Users\daria\Desktop\e2e-automation-pipeline\2018-12-28_14-31-16.675310\merged.json
[2018-12-28 14:31:16,719 DEBUG Engine.Configuration] Dumping JSON config into C:\Users\daria\Desktop\e2e-automation-pipeline\2018-12-28_14-31-16.675310\merged.json
[2018-12-28 14:31:16,720 DEBUG Engine] Add existing artifact (move=False): src/test/java/performance/BlazeDemoPerformanceTest.yml
[2018-12-28 14:31:16,720 DEBUG Engine] Copying src/test/java/performance/BlazeDemoPerformanceTest.yml to C:\Users\daria\Desktop\e2e-automation-pipeline\2018-12-28_14-31-16.675310\BlazeDemoPerformanceTest.yml
[2018-12-28 14:31:16,721 DEBUG Engine.Environment] Replace 'TAURUS_ARTIFACTS_DIR' in environment
[2018-12-28 14:31:16,722 DEBUG root] Closing log handler: C:\Users\daria\AppData\Local\Temp\bzt_g3hpc0fq.log
[2018-12-28 14:31:16,725 DEBUG root] Switched writing logs to C:\Users\daria\Desktop\e2e-automation-pipeline\2018-12-28_14-31-16.675310\bzt.log
[2018-12-28 14:31:16,725 DEBUG root] Linting config
[2018-12-28 14:31:16,727 INFO Engine] Preparing...
[2018-12-28 14:31:16,728 DEBUG Engine] Module config: consolidator {'class': 'bzt.modules.aggregator.ConsolidatingAggregator'}
[2018-12-28 14:31:16,728 DEBUG root] Importing module: bzt.modules.aggregator
[2018-12-28 14:31:16,963 DEBUG root] Loading class: 'ConsolidatingAggregator' from <module 'bzt.modules.aggregator' from 'C:\\Users\\daria\\AppData\\Local\\Taurus\\pkgs\\bzt\\modules\\aggregator.py'>
[2018-12-28 14:31:16,964 DEBUG Engine.consolidator] Buffer scaling setup: percentile 95.0 from [0.0, 50.0, 90.0, 95.0, 99.0, 99.9, 100.0] selected
[2018-12-28 14:31:16,964 DEBUG Engine] Module config: monitoring {'class': 'bzt.modules.monitoring.Monitoring'}
[2018-12-28 14:31:16,964 DEBUG root] Importing module: bzt.modules.monitoring
[2018-12-28 14:31:16,969 DEBUG root] Loading class: 'Monitoring' from <module 'bzt.modules.monitoring' from 'C:\\Users\\daria\\AppData\\Local\\Taurus\\pkgs\\bzt\\modules\\monitoring.py'>
[2018-12-28 14:31:16,969 DEBUG Engine] Module config: local {'class': 'bzt.modules.provisioning.Local'}
[2018-12-28 14:31:16,969 DEBUG root] Importing module: bzt.modules.provisioning
[2018-12-28 14:31:16,969 DEBUG root] Loading class: 'Local' from <module 'bzt.modules.provisioning' from 'C:\\Users\\daria\\AppData\\Local\\Taurus\\pkgs\\bzt\\modules\\provisioning.py'>
[2018-12-28 14:31:16,969 DEBUG Engine] Module config: jmeter {'class': 'bzt.modules.jmeter.JMeterExecutor', 'protocol-handlers': {'http': 'bzt.jmx.http.HTTPProtocolHandler'}, 'plugins': ['jpgc-casutg', 'jpgc-dummy', 'jpgc-ffw', 'jpgc-fifo', 'jpgc-functions', 'jpgc-json', 'jpgc-perfmon', 'jpgc-prmctl', 'jpgc-tst'], 'properties': {'jmeter.save.saveservice.autoflush': 'true', 'jmeter.save.saveservice.connect_time': 'true', 'jmeterengine.force.system.exit': 'true', 'summariser.name': ''}}
[2018-12-28 14:31:16,970 DEBUG root] Importing module: bzt.modules.jmeter
[2018-12-28 14:31:16,999 DEBUG root] Loading class: 'JMeterExecutor' from <module 'bzt.modules.jmeter' from 'C:\\Users\\daria\\AppData\\Local\\Taurus\\pkgs\\bzt\\modules\\jmeter.py'>
[2018-12-28 14:31:16,999 DEBUG Engine.local] Preparing executor: jmeter/1370393284848
[2018-12-28 14:31:17,000 DEBUG Engine] New artifact filename: C:\Users\daria\Desktop\e2e-automation-pipeline\2018-12-28_14-31-16.675310\jmeter.log
[2018-12-28 14:31:17,000 DEBUG Engine.jmeter] Checking if port 4445 is free
[2018-12-28 14:31:17,001 DEBUG Engine.jmeter] Port 4445 is free
[2018-12-28 14:31:17,001 DEBUG Engine.jmeter] Using port 4445 for management
[2018-12-28 14:31:17,002 DEBUG Engine] New artifact filename: C:\Users\daria\Desktop\e2e-automation-pipeline\2018-12-28_14-31-16.675310\requests.jmx
[2018-12-28 14:31:17,003 DEBUG root] Importing module: bzt.jmx.http
[2018-12-28 14:31:17,004 DEBUG root] Loading class: 'HTTPProtocolHandler' from <module 'bzt.jmx.http' from 'C:\\Users\\daria\\AppData\\Local\\Taurus\\pkgs\\bzt\\jmx\\http.py'>
[2018-12-28 14:31:17,006 DEBUG JMeterScenarioBuilder] Saving JMX to: C:\Users\daria\Desktop\e2e-automation-pipeline\2018-12-28_14-31-16.675310\requests.jmx
[2018-12-28 14:31:17,008 DEBUG Engine.jmeter] Additional system properties {'sun.net.inetaddr.ttl': 0}
[2018-12-28 14:31:17,008 DEBUG Engine] New artifact filename: C:\Users\daria\Desktop\e2e-automation-pipeline\2018-12-28_14-31-16.675310\system.properties
[2018-12-28 14:31:17,009 DEBUG Engine.jmeter] Additional properties: {'jmeter.save.saveservice.autoflush': 'true', 'jmeter.save.saveservice.connect_time': 'true', 'jmeterengine.force.system.exit': 'true', 'summariser.name': '', 'jmeterengine.nongui.port': 4445, 'jmeterengine.nongui.maxport': 4445, 'jmeter.save.saveservice.timestamp_format': 'ms', 'sampleresult.default.encoding': 'UTF-8', 'user.classpath': 'C:/Users/daria/Desktop/e2e-automation-pipeline/2018-12-28_14-31-16.675310;C:/Users/daria/Desktop/e2e-automation-pipeline/2018-12-28_14-31-16.675310'}
[2018-12-28 14:31:17,009 DEBUG Engine] New artifact filename: C:\Users\daria\Desktop\e2e-automation-pipeline\2018-12-28_14-31-16.675310\jmeter-bzt.properties
[2018-12-28 14:31:17,011 DEBUG Engine.jmeter.JavaVM] Trying JavaVM: ['java', '-version']
[2018-12-28 14:31:17,153 DEBUG Engine.jmeter.JavaVM] JavaVM output: java version "1.8.0_191"
Java(TM) SE Runtime Environment (build 1.8.0_191-b12)
Java HotSpot(TM) 64-Bit Server VM (build 25.191-b12, mixed mode)
[2018-12-28 14:31:17,153 DEBUG Engine.jmeter.TclLibrary] Checking if TCL_LIBRARY variable is present in environment
[2018-12-28 14:31:17,153 DEBUG Engine.jmeter.TclLibrary] TCL_LIBRARY environment variable is present
[2018-12-28 14:31:17,154 DEBUG Engine.jmeter.JMeter] Trying jmeter: C:\Users\daria\.bzt\jmeter-taurus\5.0\bin\jmeter.bat
[2018-12-28 14:31:17,155 DEBUG bzt.utils] Executing shell: ['C:\\Users\\daria\\.bzt\\jmeter-taurus\\5.0\\bin\\jmeter.bat', '-j', 'C:\\Users\\daria\\AppData\\Local\\Temp\\jmeter7_k2fx1llog', '--version'] at .
[2018-12-28 14:31:17,713 DEBUG urllib3.connectionpool] http://gettaurus.org:80 "GET /updates/?version=1.13.2&installID=windows-34de1a9b8187 HTTP/1.1" 200 60
[2018-12-28 14:31:17,715 DEBUG Engine] Taurus updates info: {'latest': '1.13.2', 'needsUpgrade': False}
[2018-12-28 14:31:17,715 DEBUG Engine] Installation is up-to-date
[2018-12-28 14:31:23,629 DEBUG Engine.jmeter.JMeter] JMeter check: Dec 28, 2018 2:31:19 PM java.util.prefs.WindowsPreferences <init>
WARNING: Could not open/create prefs root node Software\JavaSoft\Prefs at root 0x80000002. Windows RegCreateKeyEx(...) returned error code 5.
    _    ____   _    ____ _   _ _____       _ __  __ _____ _____ _____ ____     
   / \  |  _ \ / \  / ___| | | | ____|     | |  \/  | ____|_   _| ____|  _ \   
  / _ \ | |_) / _ \| |   | |_| |  _|    _  | | |\/| |  _|   | | |  _| | |_) | 
 / ___ \|  __/ ___ \ |___|  _  | |___  | |_| | |  | | |___  | | | |___|  _ <  
/_/   \_\_| /_/   \_\____|_| |_|_____|  \___/|_|  |_|_____| |_| |_____|_| \_\ 5.0 r1840935  

Copyright (c) 1999-2018 The Apache Software Foundation

 / None
[2018-12-28 14:31:23,630 DEBUG Engine.jmeter] Load: LoadSpec(concurrency=10, throughput=None, ramp_up=60.0, hold=90.0, iterations=0, duration=150.0, steps=None)
[2018-12-28 14:31:23,632 DEBUG Engine] New artifact filename: C:\Users\daria\Desktop\e2e-automation-pipeline\2018-12-28_14-31-16.675310\kpi.jtl
[2018-12-28 14:31:23,633 DEBUG Engine] New artifact filename: C:\Users\daria\Desktop\e2e-automation-pipeline\2018-12-28_14-31-16.675310\error.jtl
[2018-12-28 14:31:23,637 DEBUG Engine.jmeter.LoadSettingsProcessor.ThreadGroupHandler] Converting ThreadGroup (basic-performance-test) to ConcurrencyThreadGroup and apply load parameters
[2018-12-28 14:31:23,637 DEBUG Engine] New artifact filename: C:\Users\daria\Desktop\e2e-automation-pipeline\2018-12-28_14-31-16.675310\modified_requests.jmx
[2018-12-28 14:31:23,637 DEBUG JMX] Saving JMX to: C:\Users\daria\Desktop\e2e-automation-pipeline\2018-12-28_14-31-16.675310\modified_requests.jmx
[2018-12-28 14:31:23,638 DEBUG bzt.utils] Executing shell: ['C:\\Users\\daria\\.bzt\\jmeter-taurus\\5.0\\bin\\PluginsManagerCMD.bat', 'install-for-jmx', 'C:\\Users\\daria\\Desktop\\e2e-automation-pipeline\\2018-12-28_14-31-16.675310\\modified_requests.jmx'] at .
[2018-12-28 14:31:27,192 DEBUG Engine.jmeter.JMeter] Try to detect plugins for C:\Users\daria\Desktop\e2e-automation-pipeline\2018-12-28_14-31-16.675310\modified_requests.jmx
2018-12-28 14:31:24,841 INFO o.j.r.PluginManagerCMD: Command is: install-for-jmx
2018-12-28 14:31:25,342 INFO o.j.r.JARSourceHTTP: Found cached repo
2018-12-28 14:31:25,589 INFO o.j.r.PluginManager: Plugins Status: [jpgc-functions=2.1, jpgc-casutg=2.6, jpgc-dummy=0.2, jpgc-ffw=2.0, jpgc-fifo=0.2, jpgc-json=2.7, jpgc-prmctl=0.4, jpgc-perfmon=2.1, jpgc-plugins-manager=1.3, jpgc-tst=2.5, jmeter-core=5.0, jmeter-ftp=5.0, jmeter-http=5.0, jmeter-jdbc=5.0, jmeter-jms=5.0, jmeter-junit=5.0, jmeter-java=5.0, jmeter-ldap=5.0, jmeter-mail=5.0, jmeter-mongodb=5.0, jmeter-native=5.0, jmeter-tcp=5.0, jmeter-components=5.0]
2018-12-28 14:31:25,592 INFO o.j.r.PluginManagerCMD: Params line is: C:\Users\daria\Desktop\e2e-automation-pipeline\2018-12-28_14-31-16.675310\modified_requests.jmx
2018-12-28 14:31:25,923 INFO o.a.j.s.SaveService: Testplan (JMX) version: 2.2. Testlog (JTL) version: 2.2
2018-12-28 14:31:25,944 INFO o.a.j.s.SaveService: Using SaveService properties file encoding UTF-8
2018-12-28 14:31:25,949 INFO o.a.j.s.SaveService: Using SaveService properties version 5.0
2018-12-28 14:31:26,006 INFO o.a.j.p.h.c.CacheManager: Will only cache the following methods: [GET]
2018-12-28 14:31:26,010 INFO o.a.j.p.h.c.CookieManager: Settings: Delete null: true Check: true Allow variable: true Save: false Prefix: COOKIE_
2018-12-28 14:31:26,014 WARN o.a.j.u.JMeterUtils: ERROR! Resource string not found: [option]
2018-12-28 14:31:26,014 WARN o.a.j.u.JMeterUtils: ERROR! Resource string not found: [add]
2018-12-28 14:31:26,014 WARN o.a.j.u.JMeterUtils: ERROR! Resource string not found: [add_host]
2018-12-28 14:31:26,015 WARN o.a.j.u.JMeterUtils: ERROR! Resource string not found: [delete]
2018-12-28 14:31:26,015 WARN o.a.j.u.JMeterUtils: ERROR! Resource string not found: [delete_host]
2018-12-28 14:31:26,015 WARN o.a.j.u.JMeterUtils: ERROR! Resource string not found: [use_system_dns_resolver]
2018-12-28 14:31:26,015 WARN o.a.j.u.JMeterUtils: ERROR! Resource string not found: [use_custom_dns_resolver]
2018-12-28 14:31:26,015 WARN o.a.j.u.JMeterUtils: ERROR! Resource string not found: [dns_hostname_or_ip]
2018-12-28 14:31:26,015 WARN o.a.j.u.JMeterUtils: ERROR! Resource string not found: [dns_host]
2018-12-28 14:31:26,015 WARN o.a.j.u.JMeterUtils: ERROR! Resource string not found: [dns_hostname_or_ip]
2018-12-28 14:31:26,153 INFO o.a.j.p.h.s.HTTPSamplerBase: Parser for text/html is org.apache.jmeter.protocol.http.parser.LagartoBasedHtmlParser
2018-12-28 14:31:26,153 INFO o.a.j.p.h.s.HTTPSamplerBase: Parser for application/xhtml+xml is org.apache.jmeter.protocol.http.parser.LagartoBasedHtmlParser
2018-12-28 14:31:26,154 INFO o.a.j.p.h.s.HTTPSamplerBase: Parser for application/xml is org.apache.jmeter.protocol.http.parser.LagartoBasedHtmlParser
2018-12-28 14:31:26,154 INFO o.a.j.p.h.s.HTTPSamplerBase: Parser for text/xml is org.apache.jmeter.protocol.http.parser.LagartoBasedHtmlParser
2018-12-28 14:31:26,154 INFO o.a.j.p.h.s.HTTPSamplerBase: Parser for text/vnd.wap.wml is org.apache.jmeter.protocol.http.parser.RegexpHTMLParser
2018-12-28 14:31:26,154 INFO o.a.j.p.h.s.HTTPSamplerBase: Parser for text/css is org.apache.jmeter.protocol.http.parser.CssParser
2018-12-28 14:31:26,212 INFO o.j.r.PluginManager: Finishing without changes

dic 28, 2018 2:31:24 PM java.util.prefs.WindowsPreferences <init>
ADVERTENCIA: Could not open/create prefs root node Software\JavaSoft\Prefs at root 0x80000002. Windows RegCreateKeyEx(...) returned error code 5.

[2018-12-28 14:31:27,192 DEBUG Engine] New artifact filename: C:\Users\daria\Desktop\e2e-automation-pipeline\2018-12-28_14-31-16.675310\jmeter.out
[2018-12-28 14:31:27,193 DEBUG Engine] New artifact filename: C:\Users\daria\Desktop\e2e-automation-pipeline\2018-12-28_14-31-16.675310\jmeter.err
[2018-12-28 14:31:27,194 DEBUG Engine] Module config: final-stats {'class': 'bzt.modules.reporting.FinalStatus'}
[2018-12-28 14:31:27,194 DEBUG root] Importing module: bzt.modules.reporting
[2018-12-28 14:31:27,216 DEBUG root] Loading class: 'FinalStatus' from <module 'bzt.modules.reporting' from 'C:\\Users\\daria\\AppData\\Local\\Taurus\\pkgs\\bzt\\modules\\reporting.py'>
[2018-12-28 14:31:27,216 DEBUG Engine] Module config: console {'class': 'bzt.modules.console.ConsoleStatusReporter'}
[2018-12-28 14:31:27,216 DEBUG root] Importing module: bzt.modules.console
[2018-12-28 14:31:27,216 DEBUG root] Loading class: 'ConsoleStatusReporter' from <module 'bzt.modules.console' from 'C:\\Users\\daria\\AppData\\Local\\Taurus\\pkgs\\bzt\\modules\\console.py'>
[2018-12-28 14:31:27,216 DEBUG Engine.console] Can't use 'console' screen, trying 'gui'
[2018-12-28 14:31:27,232 DEBUG Engine.Configuration] Dumping YAML config into C:\Users\daria\Desktop\e2e-automation-pipeline\2018-12-28_14-31-16.675310\effective.yml
[2018-12-28 14:31:27,251 DEBUG Engine.Configuration] Dumping JSON config into C:\Users\daria\Desktop\e2e-automation-pipeline\2018-12-28_14-31-16.675310\effective.json
[2018-12-28 14:31:27,252 INFO Engine] Starting...
[2018-12-28 14:31:27,253 DEBUG Engine] Startup <bzt.modules.monitoring.Monitoring object at 0x0000013F0AF8BDD8>
[2018-12-28 14:31:27,253 DEBUG Engine] Startup <bzt.modules.aggregator.ConsolidatingAggregator object at 0x0000013F0AF8BE48>
[2018-12-28 14:31:27,254 DEBUG Engine] Startup <bzt.modules.reporting.FinalStatus object at 0x0000013F110FD4A8>
[2018-12-28 14:31:27,254 DEBUG Engine] Startup <bzt.modules.console.ConsoleStatusReporter object at 0x0000013F11D6E748>
[2018-12-28 14:31:27,254 INFO Engine.console] Waiting for results...
[2018-12-28 14:31:27,255 DEBUG Engine] Startup <bzt.modules.provisioning.Local object at 0x0000013F11292668>
[2018-12-28 14:31:27,255 DEBUG Engine.local] Delay setup for jmeter/basic-performance-test: 0(start-at) + 0(delay) = 0
[2018-12-28 14:31:27,257 DEBUG Engine.Configuration] Dumping YAML config into C:\Users\daria\Desktop\e2e-automation-pipeline\2018-12-28_14-31-16.675310\effective.yml
[2018-12-28 14:31:27,277 DEBUG Engine.Configuration] Dumping JSON config into C:\Users\daria\Desktop\e2e-automation-pipeline\2018-12-28_14-31-16.675310\effective.json
[2018-12-28 14:31:27,278 DEBUG root] Leveling down log file verbosity to INFO, use -v option to have DEBUG messages enabled
[2018-12-28 14:31:27,278 DEBUG root] Leveled up log file verbosity
[2018-12-28 14:31:27,279 DEBUG bzt.utils] Executing shell: ['C:\\Users\\daria\\.bzt\\jmeter-taurus\\5.0\\bin\\jmeter.bat', '-n', '-t', 'C:\\Users\\daria\\Desktop\\e2e-automation-pipeline\\2018-12-28_14-31-16.675310\\modified_requests.jmx', '-j', 'C:\\Users\\daria\\Desktop\\e2e-automation-pipeline\\2018-12-28_14-31-16.675310\\jmeter.log', '-q', 'C:\\Users\\daria\\Desktop\\e2e-automation-pipeline\\2018-12-28_14-31-16.675310\\jmeter-bzt.properties', '-S', 'C:\\Users\\daria\\Desktop\\e2e-automation-pipeline\\2018-12-28_14-31-16.675310\\system.properties'] at C:\Users\daria\Desktop\e2e-automation-pipeline
[2018-12-28 14:31:27,286 DEBUG root] Leveling down log file verbosity to INFO, use -v option to have DEBUG messages enabled
[2018-12-28 14:31:27,530 INFO Engine.console] Did not mute console logging
[2018-12-28 14:31:27,732 INFO Engine.console] Waiting for finish...
[2018-12-28 14:34:19,670 WARNING Engine] Please wait for graceful shutdown...
[2018-12-28 14:34:19,671 DEBUG root] Leveled up log file verbosity
[2018-12-28 14:34:19,671 INFO Engine] Shutting down...
[2018-12-28 14:34:19,671 DEBUG Engine] Current stop reason: None
[2018-12-28 14:34:19,672 DEBUG Engine.local] Shutdown jmeter/basic-performance-test
[2018-12-28 14:34:19,916 DEBUG Engine.console] No logger_handler or orig_stream was detected
[2018-12-28 14:34:19,920 DEBUG Engine.Configuration] Dumping YAML config into C:\Users\daria\Desktop\e2e-automation-pipeline\2018-12-28_14-31-16.675310\effective.yml
[2018-12-28 14:34:19,962 DEBUG Engine.Configuration] Dumping JSON config into C:\Users\daria\Desktop\e2e-automation-pipeline\2018-12-28_14-31-16.675310\effective.json
[2018-12-28 14:34:19,963 INFO Engine] Post-processing...
[2018-12-28 14:34:19,964 DEBUG Engine.local] Post-process jmeter/basic-performance-test
[2018-12-28 14:34:19,964 DEBUG Engine] Add existing artifact (move=True): C:\Users\daria\Desktop\e2e-automation-pipeline\2018-12-28_14-31-16.675310\modified_requests.jmx
[2018-12-28 14:34:19,965 DEBUG Engine] No need to copy C:\Users\daria\Desktop\e2e-automation-pipeline\2018-12-28_14-31-16.675310\modified_requests.jmx
[2018-12-28 14:34:19,965 DEBUG Engine.jmeter.JTLErrorsReader.FileReader] Reading: C:\Users\daria\Desktop\e2e-automation-pipeline\2018-12-28_14-31-16.675310\error.jtl
[2018-12-28 14:34:19,966 DEBUG Engine.jmeter.JTLReader.IncrementalCSVReader.FileReader] Reading: C:\Users\daria\Desktop\e2e-automation-pipeline\2018-12-28_14-31-16.675310\kpi.jtl
[2018-12-28 14:34:19,966 DEBUG Engine.jmeter.JTLReader] Buffer len: 2; Known errors count: 1
[2018-12-28 14:34:19,966 DEBUG Engine.jmeter.JTLReader] Aggregating: 1546018444
[2018-12-28 14:34:19,969 DEBUG Engine.jmeter.JTLReader] Aggregating: 1546018445
[2018-12-28 14:34:19,972 DEBUG Engine.consolidator] Consolidator buffer[4]: dict_keys([1546018442, 1546018443, 1546018444, 1546018445])
[2018-12-28 14:34:19,973 DEBUG Engine.consolidator] Merging into 1546018442
[2018-12-28 14:34:19,973 DEBUG Engine.consolidator] Bypassing consolidation because of single result
[2018-12-28 14:34:20,054 DEBUG Engine.consolidator] Processed datapoint: 1546018442/1370278654976
[2018-12-28 14:34:20,054 DEBUG Engine.consolidator] Merging into 1546018443
[2018-12-28 14:34:20,054 DEBUG Engine.consolidator] Bypassing consolidation because of single result
[2018-12-28 14:34:20,130 DEBUG Engine.consolidator] Processed datapoint: 1546018443/1370278654976
[2018-12-28 14:34:20,130 DEBUG Engine.consolidator] Merging into 1546018444
[2018-12-28 14:34:20,130 DEBUG Engine.consolidator] Bypassing consolidation because of single result
[2018-12-28 14:34:20,219 DEBUG Engine.consolidator] Processed datapoint: 1546018444/1370278654976
[2018-12-28 14:34:20,219 DEBUG Engine.consolidator] Merging into 1546018445
[2018-12-28 14:34:20,219 DEBUG Engine.consolidator] Bypassing consolidation because of single result
[2018-12-28 14:34:20,287 DEBUG Engine.consolidator] Processed datapoint: 1546018445/1370278654976
[2018-12-28 14:34:20,287 INFO Engine.final-stats] Test duration: 0:02:52
[2018-12-28 14:34:20,288 INFO Engine.final-stats] Samples count: 1065, 0.28% failures
[2018-12-28 14:34:20,289 INFO Engine.final-stats] Average times: total 0.394, latency 0.205, connect 0.119
[2018-12-28 14:34:20,290 INFO Engine.final-stats] Percentiles:
+---------------+---------------+
| Percentile, % | Resp. Time, s |
+---------------+---------------+
|           0.0 |         0.228 |
|          50.0 |         0.301 |
|          90.0 |         0.383 |
|          95.0 |         0.482 |
|          99.0 |         1.416 |
|          99.9 |        20.992 |
|         100.0 |        20.992 |
+---------------+---------------+
[2018-12-28 14:34:20,292 INFO Engine.final-stats] Request label stats:
+------------------------+--------+--------+--------+------------------------------------------------------------------------------------------------------------------------------+
| label                  | status |   succ | avg_rt | error                                                                                                                        |
+------------------------+--------+--------+--------+------------------------------------------------------------------------------------------------------------------------------+
| http://www.google.com/ |  FAIL  | 99.72% |  0.394 | Non HTTP response message: Connect to www.google.com:80 [www.google.com/216.58.202.36] failed: Connection timed out: connect |
+------------------------+--------+--------+--------+------------------------------------------------------------------------------------------------------------------------------+
[2018-12-28 14:34:20,293 DEBUG Engine.console] No logger_handler or orig_stream was detected
[2018-12-28 14:34:20,295 DEBUG Engine.Configuration] Dumping YAML config into C:\Users\daria\Desktop\e2e-automation-pipeline\2018-12-28_14-31-16.675310\effective.yml
[2018-12-28 14:34:20,314 DEBUG Engine.Configuration] Dumping JSON config into C:\Users\daria\Desktop\e2e-automation-pipeline\2018-12-28_14-31-16.675310\effective.json
[2018-12-28 14:34:20,315 INFO root] Artifacts dir: C:\Users\daria\Desktop\e2e-automation-pipeline\2018-12-28_14-31-16.675310
[2018-12-28 14:34:20,316 INFO root] Done performing with code: 0
[2018-12-28 14:34:20,317 DEBUG root] Closing log handler: C:\Users\daria\Desktop\e2e-automation-pipeline\2018-12-28_14-31-16.675310\bzt.log
