C:\Users\daria\Desktop\e2e-automation-pipeline\src\main\java\steps\api\FindFlightsAPISteps.java
C:\Users\daria\Desktop\e2e-automation-pipeline\src\main\java\steps\api\BlazeDemoAPISteps.java
C:\Users\daria\Desktop\e2e-automation-pipeline\src\main\java\steps\ui\FindFlightsUISteps.java
C:\Users\daria\Desktop\e2e-automation-pipeline\src\main\java\pages\HomePage.java
